p4

p4 =

   1.0e+03 *

    0.3333   -2.1741    5.3153   -5.7684    2.3421

P
{Unrecognized function or variable 'P'.
} 
P=poly2sym(p4);
P
 
P =
 
(91625968995193*x^4)/274877906944 - (2390419724456391*x^3)/1099511627776 + (5844209722429371*x^2)/1099511627776 - (6342390296531793*x)/1099511627776 + 643786964656923/274877906944
 
d1=diff(P,1);
d1
 
d1 =
 
(91625968995193*x^3)/68719476736 - (7171259173369173*x^2)/1099511627776 + (5844209722429371*x)/549755813888 - 6342390296531793/1099511627776
 
d2=diff(P,2);
d2
 
d2 =
 
(274877906985579*x^2)/68719476736 - (7171259173369173*x)/549755813888 + 5844209722429371/549755813888
 
d3=diff(P,3);
d3
 
d3 =
 
(274877906985579*x)/34359738368 - 7171259173369173/549755813888
 
d4=diff(P,4);
d4
 
d4 =
 
274877906985579/34359738368
 
diary off
